2 Data – Smart Location
…
Code

#select features
selected_columns <- c("GEOID20", "STATEFP", "COUNTYFP", "TRACTCE", "BLKGRPCE", 
                      "P_WrkAge", "Pct_AO1", "Pct_AO2p", "R_HiWageWk", 
                      "E_HiWageWk", "D1A", "D1B", "D1C", "D1C8_HLTH", "D1D", 
                      "D2A_JPHH", "D2A_EPHHM", "D2C_TRIPEQ", "D2R_JOBPOP", 
                      "D2C_WREMLX", "D3A", "D3AAO", "D3AMM", "D3APO", "D3B", 
                      "D3BAO", "D3BMM4", "D3BPO4", "D4A", "D4C", "D4D", 
                      "D5AR", "D5AE", "D5BR", "D5BE", "D5CR", "D5CRI")

new_sld2021 <- sld2021[, selected_columns]
new_sld2021

# A tibble: 220,740 × 37
        GEOID20 STATEFP COUNTYFP TRACTCE BLKGRPCE P_WrkAge Pct_AO1 Pct_AO2p
          <dbl>   <dbl>    <dbl>   <dbl>    <dbl>    <dbl>   <dbl>    <dbl>
 1 481130000000      48      113    7825        4    0.549  0.0922    0.745
 2 481130000000      48      113    7825        2    0.466  0.411     0.589
 3 481130000000      48      113    7825        3    0.811  0.435     0.508
 4 481130000000      48      113    7824        1    0.638  0.112     0.888
 5 481130000000      48      113    7824        2    0.506  0.195     0.790
 6 481130000000      48      113    7827        1    0.588  0.706     0.227
 7 481130000000      48      113    9301        2    0.644  0.0543    0.916
 8 481130000000      48      113    1102        2    0.69   0.302     0.553
 9 481130000000      48      113   11401        2    0.515  0.349     0.568
10 481130000000      48      113   11401        3    0.578  0.545     0.143
# ℹ 220,730 more rows
# ℹ 29 more variables: R_HiWageWk <dbl>, E_HiWageWk <dbl>, D1A <dbl>,
#   D1B <dbl>, D1C <dbl>, D1C8_HLTH <dbl>, D1D <dbl>, D2A_JPHH <dbl>,
#   D2A_EPHHM <dbl>, D2C_TRIPEQ <dbl>, D2R_JOBPOP <dbl>, D2C_WREMLX <dbl>,
#   D3A <dbl>, D3AAO <dbl>, D3AMM <dbl>, D3APO <dbl>, D3B <dbl>, D3BAO <dbl>,
#   D3BMM4 <dbl>, D3BPO4 <dbl>, D4A <dbl>, D4C <dbl>, D4D <dbl>, D5AR <dbl>,
#   D5AE <dbl>, D5BR <dbl>, D5BE <dbl>, D5CR <dbl>, D5CRI <dbl>

2.1.3 Area selection

Code

#Select data for manhatten
NY_data <- new_sld2021[new_sld2021$STATEFP == 36, ]

# Display the filtered DataFrame
NY_data

# A tibble: 15,463 × 37
        GEOID20 STATEFP COUNTYFP TRACTCE BLKGRPCE P_WrkAge Pct_AO1 Pct_AO2p
          <dbl>   <dbl>    <dbl>   <dbl>    <dbl>    <dbl>   <dbl>    <dbl>
 1 360150000000      36       15   10200        1    0.623   0.110   0.890 
 2 360630000000      36       63   24303        2    0.603   0.259   0.699 
 3 360070000000      36        7   14301        2    0.666   0.361   0.519 
 4 360810000000      36       81   25900        2    0.581   0.383   0.0494
 5 360810000000      36       81   16600        2    0.81    0.454   0.277 
 6 360811000000      36       81  122702        1    0.47    0.134   0.0312
 7 360810000000      36       81   28300        5    0.753   0.425   0.0381
 8 360811000000      36       81  148300        4    0.528   0.374   0.590 
 9 360811000000      36       81   53900        1    0.754   0.378   0.203 
10 360810000000      36       81   35300        2    0.584   0.381   0.0613
# ℹ 15,453 more rows
# ℹ 29 more variables: R_HiWageWk <dbl>, E_HiWageWk <dbl>, D1A <dbl>,
#   D1B <dbl>, D1C <dbl>, D1C8_HLTH <dbl>, D1D <dbl>, D2A_JPHH <dbl>,
#   D2A_EPHHM <dbl>, D2C_TRIPEQ <dbl>, D2R_JOBPOP <dbl>, D2C_WREMLX <dbl>,
#   D3A <dbl>, D3AAO <dbl>, D3AMM <dbl>, D3APO <dbl>, D3B <dbl>, D3BAO <dbl>,
#   D3BMM4 <dbl>, D3BPO4 <dbl>, D4A <dbl>, D4C <dbl>, D4D <dbl>, D5AR <dbl>,
#   D5AE <dbl>, D5BR <dbl>, D5BE <dbl>, D5CR <dbl>, D5CRI <dbl>

Code

man_data <- NY_data[NY_data$COUNTYFP == 61, ]
man_data

# A tibble: 1,170 × 37
        GEOID20 STATEFP COUNTYFP TRACTCE BLKGRPCE P_WrkAge Pct_AO1 Pct_AO2p
          <dbl>   <dbl>    <dbl>   <dbl>    <dbl>    <dbl>   <dbl>    <dbl>
 1 360610000000      36       61    7800        1    0.894  0.0353   0     
 2 360610000000      36       61    5000        4    0.598  0.301    0.0357
 3 360610000000      36       61    4400        7    0.694  0.169    0.0285
 4 360610000000      36       61    6300        4    0.784  0.205    0     
 5 360610000000      36       61    6400        5    0.76   0.0852   0.159 
 6 360610000000      36       61    4800        2    0.685  0.308    0.0337
 7 360610000000      36       61    5400        3    0.683  0.240    0.0264
 8 360610000000      36       61    5900        4    0.66   0.531    0.0786
 9 360610000000      36       61    6100        2    0.668  0.226    0.0725
10 360610000000      36       61    6600        4    0.896  0.326    0.132 
# ℹ 1,160 more rows
# ℹ 29 more variables: R_HiWageWk <dbl>, E_HiWageWk <dbl>, D1A <dbl>,
#   D1B <dbl>, D1C <dbl>, D1C8_HLTH <dbl>, D1D <dbl>, D2A_JPHH <dbl>,
#   D2A_EPHHM <dbl>, D2C_TRIPEQ <dbl>, D2R_JOBPOP <dbl>, D2C_WREMLX <dbl>,
#   D3A <dbl>, D3AAO <dbl>, D3AMM <dbl>, D3APO <dbl>, D3B <dbl>, D3BAO <dbl>,
#   D3BMM4 <dbl>, D3BPO4 <dbl>, D4A <dbl>, D4C <dbl>, D4D <dbl>, D5AR <dbl>,
#   D5AE <dbl>, D5BR <dbl>, D5BE <dbl>, D5CR <dbl>, D5CRI <dbl>
…
# Define the columns to scale
columns_to_scale <- c("P_WrkAge", "Pct_AO1", "Pct_AO2p", "R_HiWageWk", 
                      "E_HiWageWk", "D1A", "D1B", "D1C", "D1C8_HLTH", "D1D", 
                      "D2A_JPHH", "D2A_EPHHM", "D2C_TRIPEQ", "D2R_JOBPOP", 
                      "D2C_WREMLX", "D3A", "D3AAO", "D3AMM", "D3APO", "D3B", 
                      "D3BAO", "D3BMM4", "D3BPO4", "D4A", "D4C", "D4D", 
                      "D5AR", "D5AE", "D5BR", "D5BE", "D5CR", "D5CRI")

# Apply Min-Max scaling to the selected columns
man_data[columns_to_scale] <- lapply(man_data[columns_to_scale], rescale)

# Print the scaled data
print(man_data)

# A tibble: 1,170 × 37
        GEOID20 STATEFP COUNTYFP TRACTCE BLKGRPCE P_WrkAge Pct_AO1 Pct_AO2p
          <dbl>   <dbl>    <dbl>   <dbl>    <dbl>    <dbl>   <dbl>    <dbl>
 1 360610000000      36       61    7800        1    0.894  0.0472   0     
 2 360610000000      36       61    5000        4    0.598  0.402    0.0357
 3 360610000000      36       61    4400        7    0.694  0.226    0.0285
 4 360610000000      36       61    6300        4    0.784  0.274    0     
 5 360610000000      36       61    6400        5    0.76   0.114    0.159 
 6 360610000000      36       61    4800        2    0.685  0.412    0.0337
 7 360610000000      36       61    5400        3    0.683  0.321    0.0264
 8 360610000000      36       61    5900        4    0.66   0.710    0.0786
 9 360610000000      36       61    6100        2    0.668  0.303    0.0725
10 360610000000      36       61    6600        4    0.896  0.436    0.132 
# ℹ 1,160 more rows
# ℹ 29 more variables: R_HiWageWk <dbl>, E_HiWageWk <dbl>, D1A <dbl>,
#   D1B <dbl>, D1C <dbl>, D1C8_HLTH <dbl>, D1D <dbl>, D2A_JPHH <dbl>,
#   D2A_EPHHM <dbl>, D2C_TRIPEQ <dbl>, D2R_JOBPOP <dbl>, D2C_WREMLX <dbl>,
#   D3A <dbl>, D3AAO <dbl>, D3AMM <dbl>, D3APO <dbl>, D3B <dbl>, D3BAO <dbl>,
#   D3BMM4 <dbl>, D3BPO4 <dbl>, D4A <dbl>, D4C <dbl>, D4D <dbl>, D5AR <dbl>,
#   D5AE <dbl>, D5BR <dbl>, D5BE <dbl>, D5CR <dbl>, D5CRI <dbl>
…
